<svg xmlns="http://www.w3.org/2000/svg" xmlns:xlink="http://www.w3.org/1999/xlink" width="29" height="31.5" viewBox="0 0 29 31.5">
<defs>
    <filter id="filter-weather" x="1036" y="2927.5" width="29" height="31.5" filterUnits="userSpaceOnUse">
      <feOffset result="offset" dy="2" in="SourceAlpha"/>
      <feGaussianBlur result="blur"/>
      <feFlood result="flood" flood-color="#0f3e6e"/>
      <feComposite result="composite" operator="in" in2="blur"/>
      <feBlend result="blend" in="SourceGraphic" in2="SourceGraphic" />
    </filter>
  </defs>
  <path fill="#3a81c9" filter="url(#filter-weather)" d="M1050.5,2934.75a7.25,7.25,0,1,0,7.25,7.25A7.255,7.255,0,0,0,1050.5,2934.75Zm0,11.6a4.35,4.35,0,1,1,4.35-4.35A4.353,4.353,0,0,1,1050.5,2946.35Zm1.45-18.85h-2.9v4.35h2.9v-4.35Zm9.83,5.27-2.05-2.05-3.08,3.08,2.05,2.05Zm-1.13,7.78v2.9H1065v-2.9h-4.35Zm-4,9.65,3.08,3.08,2.05-2.05-3.08-3.08Zm-7.6,6.3h2.9v-4.35h-2.9v4.35Zm-9.83-5.27,2.05,2.05,3.08-3.08-2.05-2.05Zm1.13-10.68H1036v2.9h4.35v-2.9Zm4-6.75-3.08-3.08-2.05,2.05,3.08,3.08Z" transform="translate(-1036 -2927.5)"/>
</svg>
